Yo, it’s our project
…
## # A tibble: 34 x 4
##    Title                                            Score Review_num Year 
##    <chr>                                            <dbl>      <dbl> <chr>
##  1 Quest (2017                                        100       53.0 2017 
##  2 Bright Lights: Starring Carrie Fisher and Debbi…   100       53.0 2017 
##  3 The Work (2017                                     100       52.0 2017 
##  4 The Happiest Day in the Life of Olli Mäki (Hymy…   100       49.0 2017 
##  5 Dawson City: Frozen Time (2017                     100       45.0 2017 
##  6 Dolores (2017                                      100       41.0 2017 
##  7 Things to Come (L'avenir) (2016                    100      130   2016 
##  8 Tower (2016                                        100       78.0 2016 
##  9 O.J.: Made in America (2016                        100       50.0 2016 
## 10 The Age of Shadows (2016                           100       41.0 2016 
## # ... with 24 more rows
